<?xml version="1.0" encoding="UTF-8"?>
<svg width="4.5194mm" height="4.5194mm" version="1.1" viewBox="0 0 4.5194 4.5194" xmlns="http://www.w3.org/2000/svg" xmlns:cc="http://creativecommons.org/ns#" xmlns:dc="http://purl.org/dc/elements/1.1/" xmlns:rdf="http://www.w3.org/1999/02/22-rdf-syntax-ns#">
 <metadata>
  <rdf:RDF>
   <cc:Work rdf:about="">
    <dc:format>image/svg+xml</dc:format>
    <dc:type rdf:resource="http://purl.org/dc/dcmitype/StillImage"/>
    <dc:title/>
   </cc:Work>
  </rdf:RDF>
 </metadata>
 <g transform="translate(-188.24 -145.91)">
  <g transform="translate(169.08 -65.127)" fill="none" stroke="#418036" stroke-width="1.0001">
   <path d="m21.418 211.03v4.5194"/>
   <path d="m23.677 213.29h-4.5194"/>
  </g>
 </g>
</svg>
