<?xml version="1.0" encoding="UTF-8" standalone="no"?>
<svg
   width="4.325mm"
   height="4.325mm"
   version="1.1"
   viewBox="0 0 4.325 4.325"
   id="svg3"
   sodipodi:docname="annotation_highlighter.svg"
   inkscape:version="1.4 (e7c3feb1, 2024-10-09)"
   xmlns:inkscape="http://www.inkscape.org/namespaces/inkscape"
   xmlns:sodipodi="http://sodipodi.sourceforge.net/DTD/sodipodi-0.dtd"
   xmlns="http://www.w3.org/2000/svg"
   xmlns:svg="http://www.w3.org/2000/svg"
   xmlns:rdf="http://www.w3.org/1999/02/22-rdf-syntax-ns#"
   xmlns:cc="http://creativecommons.org/ns#"
   xmlns:dc="http://purl.org/dc/elements/1.1/">
  <defs
     id="defs3" />
  <sodipodi:namedview
     id="namedview3"
     pagecolor="#ffffff"
     bordercolor="#000000"
     borderopacity="0.25"
     inkscape:showpageshadow="2"
     inkscape:pageopacity="0.0"
     inkscape:pagecheckerboard="0"
     inkscape:deskcolor="#d1d1d1"
     inkscape:document-units="mm"
     inkscape:zoom="11.313708"
     inkscape:cx="8.6178639"
     inkscape:cy="8.1759222"
     inkscape:window-width="1336"
     inkscape:window-height="650"
     inkscape:window-x="0"
     inkscape:window-y="38"
     inkscape:window-maximized="0"
     inkscape:current-layer="svg3" />
  <metadata
     id="metadata1">
    <rdf:RDF>
      <cc:Work
         rdf:about="">
        <dc:format>image/svg+xml</dc:format>
        <dc:type
           rdf:resource="http://purl.org/dc/dcmitype/StillImage" />
        <dc:title />
      </cc:Work>
    </rdf:RDF>
  </metadata>
  <path
     style="fill:none;fill-opacity:1;stroke:#fff84c;stroke-width:1;stroke-linecap:butt;stroke-dasharray:none;stroke-opacity:1"
     d="M 0.82267735,3.6222789 C 1.5276992,2.2683887 2.5601055,1.4601394 3.7338835,0.88750961"
     id="path1"
     sodipodi:nodetypes="cc" />
</svg>
