<?xml version="1.0" encoding="UTF-8" standalone="no"?>
<svg
   width="4.325mm"
   height="4.325mm"
   version="1.1"
   viewBox="0 0 4.325 4.325"
   id="svg3"
   sodipodi:docname="annotation_eraser.svg"
   inkscape:version="1.4 (e7c3feb1, 2024-10-09)"
   xml:space="preserve"
   xmlns:inkscape="http://www.inkscape.org/namespaces/inkscape"
   xmlns:sodipodi="http://sodipodi.sourceforge.net/DTD/sodipodi-0.dtd"
   xmlns="http://www.w3.org/2000/svg"
   xmlns:svg="http://www.w3.org/2000/svg"
   xmlns:rdf="http://www.w3.org/1999/02/22-rdf-syntax-ns#"
   xmlns:cc="http://creativecommons.org/ns#"
   xmlns:dc="http://purl.org/dc/elements/1.1/"><defs
     id="defs3" /><sodipodi:namedview
     id="namedview3"
     pagecolor="#ffffff"
     bordercolor="#000000"
     borderopacity="0.25"
     inkscape:showpageshadow="2"
     inkscape:pageopacity="0.0"
     inkscape:pagecheckerboard="0"
     inkscape:deskcolor="#d1d1d1"
     inkscape:document-units="mm"
     inkscape:zoom="11.313708"
     inkscape:cx="10.297243"
     inkscape:cy="11.976622"
     inkscape:window-width="1336"
     inkscape:window-height="650"
     inkscape:window-x="0"
     inkscape:window-y="38"
     inkscape:window-maximized="0"
     inkscape:current-layer="svg3" /><metadata
     id="metadata1"><rdf:RDF><cc:Work
         rdf:about=""><dc:format>image/svg+xml</dc:format><dc:type
           rdf:resource="http://purl.org/dc/dcmitype/StillImage" /><dc:title /></cc:Work></rdf:RDF></metadata><g
     id="g2"><path
       id="path2"
       style="fill:#d8d8d8;fill-opacity:1;stroke:none;stroke-width:0.1;stroke-dasharray:none;stroke-opacity:1"
       d="M 1.5343362,1.8232615 2.5839706,0.77362704 c 0.039174,-0.0391737 0.1022476,-0.0391737 0.1414214,0 L 3.7952663,1.8435013 c 0.039174,0.039174 0.039174,0.1022477 0,0.1414214 L 2.7456125,3.0345764 Z"
       sodipodi:nodetypes="cccsccc" /><path
       id="rect1-1"
       style="fill:#dc9897;fill-opacity:1;stroke:none;stroke-width:0.1;stroke-dasharray:none;stroke-opacity:1"
       d="M 2.7456029,3.0345861 2.0804605,3.6997285 1.1659596,3.6955944 v 0 L 0.4846922,3.0143269 c -0.039174,-0.039174 -0.039174,-0.1022476 0,-0.1414213 L 1.5343266,1.8232712 Z"
       sodipodi:nodetypes="ccccsccc" /><path
       id="rect1"
       style="fill:none;stroke:#000000;stroke-width:0.1;stroke-dasharray:none;stroke-opacity:1"
       d="M 1.1659596,3.6955944 0.48469217,3.0143269 c -0.0391737,-0.039174 -0.0391737,-0.1022476 0,-0.1414213 L 2.583961,0.77363674 c 0.039174,-0.0391737 0.1022476,-0.0391737 0.1414214,0 L 3.7952566,1.843511 c 0.039174,0.039174 0.039174,0.1022477 0,0.1414214 L 2.0804605,3.6997285 Z"
       sodipodi:nodetypes="csssssscc" /><path
       style="fill:none;fill-opacity:1;stroke:#000000;stroke-width:0.1;stroke-dasharray:none;stroke-opacity:1"
       d="M 1.5343266,1.8232711 2.7456222,3.0345668"
       id="path1" /></g><path
     style="fill:none;fill-opacity:1;stroke:#000000;stroke-width:0.1;stroke-dasharray:none;stroke-opacity:1"
     d="M 2.0804605,3.6997285 H 3.745508"
     id="path3" /></svg>
