<?xml version="1.0" encoding="UTF-8" standalone="no"?>
<svg
   width="8.6126mm"
   height="8.6126mm"
   version="1.1"
   viewBox="0 0 8.6126 8.6126"
   id="svg2"
   sodipodi:docname="pip-black.svg"
   inkscape:version="1.4 (e7c3feb1, 2024-10-09)"
   xmlns:inkscape="http://www.inkscape.org/namespaces/inkscape"
   xmlns:sodipodi="http://sodipodi.sourceforge.net/DTD/sodipodi-0.dtd"
   xmlns="http://www.w3.org/2000/svg"
   xmlns:svg="http://www.w3.org/2000/svg"
   xmlns:rdf="http://www.w3.org/1999/02/22-rdf-syntax-ns#"
   xmlns:cc="http://creativecommons.org/ns#"
   xmlns:dc="http://purl.org/dc/elements/1.1/">
  <defs
     id="defs2" />
  <sodipodi:namedview
     id="namedview2"
     pagecolor="#ffffff"
     bordercolor="#000000"
     borderopacity="0.25"
     inkscape:showpageshadow="2"
     inkscape:pageopacity="0.0"
     inkscape:pagecheckerboard="0"
     inkscape:deskcolor="#d1d1d1"
     inkscape:document-units="mm"
     inkscape:zoom="4.5183152"
     inkscape:cx="16.156465"
     inkscape:cy="16.156465"
     inkscape:window-width="1104"
     inkscape:window-height="675"
     inkscape:window-x="0"
     inkscape:window-y="38"
     inkscape:window-maximized="0"
     inkscape:current-layer="svg2" />
  <metadata
     id="metadata1">
    <rdf:RDF>
      <cc:Work
         rdf:about="">
        <dc:format>image/svg+xml</dc:format>
        <dc:type
           rdf:resource="http://purl.org/dc/dcmitype/StillImage" />
        <dc:title />
      </cc:Work>
    </rdf:RDF>
  </metadata>
  <circle
     cx="4.3100014"
     cy="4.3070002"
     r="3.9094"
     fill="none"
     stroke="#000000"
     stroke-linecap="round"
     stroke-linejoin="round"
     stroke-width="0.79375"
     id="circle1" />
  <path
     style="fill:none;stroke:#000000;stroke-width:0.794;stroke-linecap:round;stroke-linejoin:round;stroke-dasharray:none"
     d="M 2.6936663,3.9233834 C 3.7908696,4.9247789 3.784267,5.2988752 4.2747313,6.1485859 5.3350235,4.0666746 6.3263879,2.5926293 8.0224407,0.76125351"
     id="path2"
     sodipodi:nodetypes="ccc" />
</svg>
