<?xml version="1.0" encoding="UTF-8"?>
<svg width="11.289mm" height="11.289mm" version="1.1" viewBox="0 0 11.289 11.289" xmlns="http://www.w3.org/2000/svg" xmlns:cc="http://creativecommons.org/ns#" xmlns:dc="http://purl.org/dc/elements/1.1/" xmlns:rdf="http://www.w3.org/1999/02/22-rdf-syntax-ns#">
 <metadata>
  <rdf:RDF>
   <cc:Work rdf:about="">
    <dc:format>image/svg+xml</dc:format>
    <dc:type rdf:resource="http://purl.org/dc/dcmitype/StillImage"/>
    <dc:title/>
   </cc:Work>
  </rdf:RDF>
 </metadata>
 <g transform="translate(-98.677 -125.14)">
  <g transform="matrix(.009122 0 0 -.009122 101.29 133.06)">
   <path d="m609 722c0-30-22-43-42-43-19 0-41 13-41 42 0 14 8 37 37 41-22 19-53 21-63 21-45 0-79-25-93-209l-19-249c-8-111-44-402-57-454-22-90-70-177-165-177-60 0-110 35-110 83 0 30 22 43 42 43 19 0 41-13 41-42 0-14-8-37-37-41 21-18 51-21 64-21 57 0 93 45 106 209l19 249c9 121 45 403 57 458 17 76 56 173 151 173 60 0 110-35 110-83z" fill="currentColor"/>
  </g>
 </g>
</svg>
