<?xml version="1.0" encoding="UTF-8"?>
<svg width="11.289mm" height="11.289mm" version="1.1" viewBox="0 0 11.289 11.289" xmlns="http://www.w3.org/2000/svg" xmlns:cc="http://creativecommons.org/ns#" xmlns:dc="http://purl.org/dc/elements/1.1/" xmlns:rdf="http://www.w3.org/1999/02/22-rdf-syntax-ns#">
 <metadata>
  <rdf:RDF>
   <cc:Work rdf:about="">
    <dc:format>image/svg+xml</dc:format>
    <dc:type rdf:resource="http://purl.org/dc/dcmitype/StillImage"/>
    <dc:title/>
   </cc:Work>
  </rdf:RDF>
 </metadata>
 <g transform="translate(-97.921 -133.45)" fill="#180000">
  <rect transform="scale(-1)" x="-108.93" y="-135.42" width="10.732" height="1.1352" ry="0"/>
  <rect transform="scale(-1)" x="-108.93" y="-137.54" width="10.732" height="1.1352" ry="0"/>
  <rect transform="scale(-1)" x="-108.93" y="-139.66" width="10.732" height="1.1352" ry="0"/>
  <rect transform="scale(-1)" x="-108.93" y="-141.78" width="10.732" height="1.1352" ry="0"/>
  <rect transform="scale(-1)" x="-108.93" y="-143.9" width="10.732" height="1.1352" ry="0"/>
 </g>
</svg>
