<?xml version="1.0" encoding="UTF-8"?>
<svg width="12.182mm" height="9.0015mm" version="1.1" viewBox="0 0 12.182 9.0015" xmlns="http://www.w3.org/2000/svg" xmlns:cc="http://creativecommons.org/ns#" xmlns:dc="http://purl.org/dc/elements/1.1/" xmlns:rdf="http://www.w3.org/1999/02/22-rdf-syntax-ns#">
 <metadata>
  <rdf:RDF>
   <cc:Work rdf:about="">
    <dc:format>image/svg+xml</dc:format>
    <dc:type rdf:resource="http://purl.org/dc/dcmitype/StillImage"/>
    <dc:title/>
   </cc:Work>
  </rdf:RDF>
 </metadata>
 <g transform="translate(-217.67 -90.749)">
  <path d="m222.09 90.749c-1.4865-2e-3 -1.7205 0.992-1.7823 1.7157-0.0302 0.35404 0 1.0661 0 1.0661s-0.21896 0.0557-0.26613 0.15348c-0.051 0.10581-7e-3 0.46247 0 0.55087 0.0142 0.1722 0.26251 0.21911 0.26251 0.21911 0.12282 0.67756 0.21074 1.0626 0.62219 1.2723v0.56844c-0.96882 0.57213-1.9417 1.1124-2.9295 1.5322-0.30679 0.1273-0.32142 0.29857-0.33022 0.58136v1.2981c4.0624-0.0566 8.1214 0.0439 12.182 0.0439v-1.0666c-7e-3 -0.23239-0.0197-0.37287-0.27182-0.47749-0.81181-0.34497-1.6109-0.78918-2.4071-1.2594v-0.46716c0.33813-0.17233 0.41015-0.48859 0.51109-1.0454 0 0 0.2043-0.0383 0.216-0.17983 6e-3 -0.0727 0.0419-0.36625 0-0.45321-0.0388-0.0804-0.21911-0.12609-0.21911-0.12609s0.0249-0.58498 0-0.87591c-0.0508-0.5947-0.2429-1.4114-1.4645-1.4097-1.2216-2e-3 -1.4142 0.81504-1.465 1.4097-0.0248 0.29093 0 0.87591 0 0.87591s-0.17983 0.0458-0.2186 0.12609c0.0105 0.48178-0.81314 0.51528-0.65319-0.34726 0 0 0.24828-0.0469 0.26252-0.21911 7e-3 -0.0884 0.051-0.44506 0-0.55087-0.0472-0.0978-0.26562-0.15348-0.26562-0.15348s0.0302-0.71204 0-1.0661c-0.0618-0.72366-0.29631-1.7176-1.7828-1.7157zm1.3374 5.3718h0.66043v1.0568h1.0563v0.6599h-1.0563v1.0568h-0.66043v-1.0568h-1.0563v-0.6599h1.0563z" fill="#fff"/>
 </g>
</svg>
