<?xml version="1.0" encoding="UTF-8"?>
<svg width="8.8475mm" height="8.9576mm" version="1.1" viewBox="0 0 8.8475 8.9576" xmlns="http://www.w3.org/2000/svg" xmlns:cc="http://creativecommons.org/ns#" xmlns:dc="http://purl.org/dc/elements/1.1/" xmlns:rdf="http://www.w3.org/1999/02/22-rdf-syntax-ns#">
 <metadata>
  <rdf:RDF>
   <cc:Work rdf:about="">
    <dc:format>image/svg+xml</dc:format>
    <dc:type rdf:resource="http://purl.org/dc/dcmitype/StillImage"/>
    <dc:title/>
   </cc:Work>
  </rdf:RDF>
 </metadata>
 <g transform="translate(-79.487 -179.22)">
  <path d="m83.91 179.22c-1.4865-2e-3 -1.7205 0.99201-1.7823 1.7156-0.03024 0.35406 3e-6 1.0661 0 1.0661 0 0-0.21896 0.0557-0.26613 0.15348-0.05104 0.10579-0.0073 0.46247 0 0.55087 0.01423 0.1722 0.26252 0.21911 0.26251 0.21911 0.12282 0.67756 0.21074 1.0626 0.62219 1.2723v0.56845c-0.96882 0.57212-1.9417 1.1124-2.9295 1.5322-0.30678 0.12729-0.32142 0.29857-0.33021 0.58135v1.2981h8.8475v-1.2981c-0.0088-0.28279-0.02394-0.45406-0.33073-0.58135-0.98786-0.41979-1.9607-0.96009-2.9295-1.5322v-0.56845c0.41145-0.20967 0.49937-0.5947 0.62218-1.2723 0 0 0.24828-0.0469 0.26252-0.21911 0.0073-0.0884 0.05104-0.44507 0-0.55087-0.04717-0.0978-0.26562-0.15348-0.26562-0.15348 0 0 0.03024-0.71204 0-1.0661-0.06182-0.72363-0.29632-1.7176-1.7828-1.7156zm-0.32969 5.4379h0.66042v1.0568h1.0563v0.65991h-1.0563v1.0568h-0.66042v-1.0568h-1.0563v-0.65991h1.0563z" fill="#fff"/>
 </g>
</svg>
