<?xml version="1.0" encoding="UTF-8"?>
<svg width="7.8109mm" height="10.509mm" version="1.1" viewBox="0 0 7.8109 10.509" xmlns="http://www.w3.org/2000/svg" xmlns:cc="http://creativecommons.org/ns#" xmlns:dc="http://purl.org/dc/elements/1.1/" xmlns:rdf="http://www.w3.org/1999/02/22-rdf-syntax-ns#">
 <metadata>
  <rdf:RDF>
   <cc:Work rdf:about="">
    <dc:format>image/svg+xml</dc:format>
    <dc:type rdf:resource="http://purl.org/dc/dcmitype/StillImage"/>
    <dc:title/>
   </cc:Work>
  </rdf:RDF>
 </metadata>
 <g transform="translate(-208.52 -189.78)">
  <path d="m211.53 189.78c0.0217 0.27932 0.18683 0.53992 0.47078 0.66869 0.11089 0.0829 0.078 0.30916 0.0749 0.63356-2.3884 0.11772-2.0152 1.9861-2.1177 3.2168-0.2561 3.0754-1.381 1.6902-1.4407 4.5698 0.0134 0.26513 2.1715 0.25265 3.9057 0.28835 1.7342-0.0357 3.8918-0.0232 3.9052-0.28835-0.0597-2.8796-1.1846-1.4944-1.4407-4.5698-0.10249-1.2308 0.27071-3.0991-2.1177-3.2168-3e-3 -0.3244-0.036-0.55066 0.0749-0.63356 0.28395-0.12877 0.44904-0.38937 0.47077-0.66869zm1.8635 9.665c-0.32525 5e-3 -0.65386 0.0101-0.96532 0.0165a0.30387 0.30387 0 0 1-0.0119 0c-0.30579-6e-3 -0.62836-0.0109-0.94775-0.016a0.97097 0.97097 0 0 0 0.96222 0.84336 0.97097 0.97097 0 0 0 0.96273-0.84388z" fill="#fffffc"/>
 </g>
</svg>
