<?xml version="1.0" encoding="UTF-8"?>
<svg width="40.059mm" height="34.87mm" version="1.1" viewBox="0 0 40.059 34.87" xmlns="http://www.w3.org/2000/svg" xmlns:cc="http://creativecommons.org/ns#" xmlns:dc="http://purl.org/dc/elements/1.1/" xmlns:rdf="http://www.w3.org/1999/02/22-rdf-syntax-ns#">
 <metadata>
  <rdf:RDF>
   <cc:Work rdf:about="">
    <dc:format>image/svg+xml</dc:format>
    <dc:type rdf:resource="http://purl.org/dc/dcmitype/StillImage"/>
    <dc:title/>
   </cc:Work>
  </rdf:RDF>
 </metadata>
 <g transform="translate(-129.65 -154.17)">
  <path d="m149.68 154.83-9.6842 16.773-9.6842 16.774h38.737l-9.6842-16.774z" fill="#ffd52e" stroke="#a6903b" stroke-linecap="round" stroke-linejoin="round" stroke-opacity=".99608" stroke-width="1.3229"/>
  <rect x="147.76" y="164.51" width="3.8353" height="13.938" fill="#504000"/>
  <circle cx="149.68" cy="183.03" r="1.9644" fill="#504000"/>
 </g>
</svg>
